{
    "name": "StudentImportTemp",
    "alias": "studentimporttemp",
    "description": "",
    "keywords": [],
    "active": 1,
    "order": 0,
    "providers": [
        "Modules\\StudentImportTemp\\Providers\\StudentImportTempServiceProvider"
    ],
    "aliases": {},
    "files": [
        "start.php"
    ],
    "requires": []
}
